{
  "entry": {
    "main": [
      "./scripts/main.js",
      "./styles/main.scss"
    ],
    "customizer": [
      "./scripts/customizer.js"
    ]

  },
  "publicPath": "/wp-content/themes/juhoroyhy-r3",
  "devUrl": "http://localhost/portfolio",
  "proxyUrl": "http://localhost:3000",
  "cacheBusting": "[name]_[hash:8]",
  "watch": [
    "app/**/*.php",
    "config/**/*.php",
    "resources/views/**/*.php",
    "resources/assets/scripts/vue/**/*.vue"
  ]
}
